{
  "environment": "production",
  "username": "admin",
  "password": "adminsacc01",
  "pouch_url": "http://couch.teliov.xyz/staugustine",
  "pouch_user_url": "http://couch.teliov.xyz/staugustinedb_user",
  "pouch_user": "admin",
  "pouch_password": "adminsacc01"
}
